{
    "name": "YandexDelivery",
    "alias": "yandexdelivery",
    "description": "",
    "keywords": [],
    "priority": 0,
    "providers": [
        "Modules\\YandexDelivery\\Providers\\YandexDeliveryServiceProvider"
    ],
    "aliases": {},
    "files": [],
    "requires": []
}
